2014-04-24T13:08:08.008938Z|cov-build|4432|info|> cov-build 7.0.2 (build 8c35bb7bf8 p-fresno-push-17316.501)
2014-04-24T13:08:08.008938Z|cov-build|4432|info|> Coverity Build Capture version 7.0.2 on Windows 8 (Unknown Edition number 103), 64-bit (build 9200)
2014-04-24T13:08:08.008938Z|cov-build|4432|info|> Internal version numbers: 8c35bb7bf8 p-fresno-push-17316.501
2014-04-24T13:08:08.008938Z|cov-build|4432|info|> 
2014-04-24T13:08:08.008938Z|cov-build|4432|info|> Dumping from hostname : OLAVACERWIN8
2014-04-24T13:08:08.008938Z|cov-build|4432|info|> 
2014-04-24T13:08:08.008938Z|cov-build|4432|info|> Platform info: Windows 8 (Unknown Edition number 103), 64-bit (build 9200)
2014-04-24T13:08:08.008938Z|cov-build|4432|info|> 
2014-04-24T13:08:08.008938Z|cov-build|4432|info|> cov-build command: cov-build --dir cov-int msbuild /t:Rebuild 
2014-04-24T13:08:08.012952Z|cov-build|4432|info|> build command: C:\Program Files (x86)\MSBuild\12.0\bin\amd64\msbuild.exe /t:Rebuild
2014-04-24T13:08:08.012952Z|cov-build|4432|info|> thunk command: msbuild.exe /t:Rebuild
2014-04-24T13:08:08.012952Z|cov-build|4432|info|> 
2014-04-24T13:08:08.013953Z|cov-build|4432|info|> Set COVERITY_CAPTURE_IGNORE to MSPDBSVR.EXE
2014-04-24T13:08:08.013953Z|cov-build|4432|info|> Set COVERITY_BUILD_COMMAND to "C:\Program Files (x86)\MSBuild\12.0\bin\amd64\msbuild.exe"  /t:Rebuild
2014-04-24T13:08:08.013953Z|cov-build|4432|info|> Set COVERITY_ORIG_BUILD_COMMAND to msbuild.exe /t:Rebuild
2014-04-24T13:08:08.013953Z|cov-build|4432|info|> Set COVERITY_COV_BUILD_COMMAND to cov-build --dir cov-int msbuild /t:Rebuild 
2014-04-24T13:08:08.013953Z|cov-build|4432|info|> Set COVERITY_CAPTURE_CHCMDLINE_TYPE to inject
2014-04-24T13:08:08.013953Z|cov-build|4432|info|> Set COVERITY_BIN to c:/temp/cov-analysis/bin
2014-04-24T13:08:08.013953Z|cov-build|4432|info|> Set COVERITY_SITE_CC to apt;c++;cc;cl;csc;devenv;g++;gcc;java;javac;msbuild
2014-04-24T13:08:08.013953Z|cov-build|4432|info|> Set COVERITY_TEMP to C:/Users/Olav/AppData/Local/Temp/cov-Olav/5cdd9d9332edec945ae6d64cd9e8d65c
2014-04-24T13:08:08.013953Z|cov-build|4432|info|> Set COVERITY_IDIR to c:/Projekte/WDSFJudging/Judging Server/cov-int
2014-04-24T13:08:08.013953Z|cov-build|4432|info|> Set COVERITY_EMIT to c:/Projekte/WDSFJudging/Judging Server/cov-int/emit
2014-04-24T13:08:08.013953Z|cov-build|4432|info|> Append to PATH c:\temp\cov-analysis\jars
2014-04-24T13:08:08.014953Z|cov-build|4432|info|> Setting COVERITY_LD_LIBRARY_PATH to c:\temp\cov-analysis\jars
2014-04-24T13:08:08.014953Z|cov-build|4432|info|> Set COVERITY_JAVA_CONFIG to javac#TEMPLATE##java#TEMPLATE##apt#TEMPLATE###
2014-04-24T13:08:08.014953Z|cov-build|4432|info|> Set COVERITY_USING_CYGWIN to False
2014-04-24T13:08:08.015954Z|cov-build|4432|info|> Set COVERITY_OUTPUT to pipe:\\.\pipe\cov-log-9a91af22f41eae4734392a2d5db5c4e3.s
2014-04-24T13:08:08.015954Z|cov-build|4432|info|> Set COVERITY_LOG to pipe:\\.\pipe\cov-log-9a91af22f41eae4734392a2d5db5c4e3.m
2014-04-24T13:08:08.015954Z|cov-build|4432|info|> Set COVERITY_OUTPUT_ENCODING to windows-1252
2014-04-24T13:08:08.015954Z|cov-build|4432|info|> 
2014-04-24T13:08:08.015954Z|cov-build|4432|info|> 
2014-04-24T13:08:08.015954Z|cov-build|4432|info|> Dumping configuration:
2014-04-24T13:08:08.015954Z|cov-build|4432|info|> 
2014-04-24T13:08:08.015954Z|cov-build|4432|info|> User/default configuration:
2014-04-24T13:08:08.015954Z|cov-build|4432|info|> 
2014-04-24T13:08:08.015954Z|cov-build|4432|info|> Configuration read from: command-line
2014-04-24T13:08:08.015954Z|cov-build|4432|info|> Node: coverity
2014-04-24T13:08:08.015954Z|cov-build|4432|info|>   Node: config
2014-04-24T13:08:08.015954Z|cov-build|4432|info|>     Node: include Value: c:\temp\cov-analysis\config\coverity_config.xml
2014-04-24T13:08:08.015954Z|cov-build|4432|info|>   Node: config
2014-04-24T13:08:08.015954Z|cov-build|4432|info|>     Node: prevent
2014-04-24T13:08:08.015954Z|cov-build|4432|info|>       Node: dir Value: c:\Projekte\WDSFJudging\Judging Server\cov-int
2014-04-24T13:08:08.015954Z|cov-build|4432|info|> 
2014-04-24T13:08:08.015954Z|cov-build|4432|info|> Configuration read from: c:\temp\cov-analysis\config\coverity_config.xml
2014-04-24T13:08:08.015954Z|cov-build|4432|info|> Node: coverity
2014-04-24T13:08:08.015954Z|cov-build|4432|info|>   Node: config
2014-04-24T13:08:08.015954Z|cov-build|4432|info|>     Node: include Value: c:\temp\cov-analysis\config/template-gcc-config-0/coverity_config.xml
2014-04-24T13:08:08.015954Z|cov-build|4432|info|>     Node: include Value: c:\temp\cov-analysis\config/template-gcc-config-1/coverity_config.xml
2014-04-24T13:08:08.015954Z|cov-build|4432|info|>     Node: include Value: c:\temp\cov-analysis\config/template-javac-config-0/coverity_config.xml
2014-04-24T13:08:08.015954Z|cov-build|4432|info|>     Node: include Value: c:\temp\cov-analysis\config/template-java-config-0/coverity_config.xml
2014-04-24T13:08:08.015954Z|cov-build|4432|info|>     Node: include Value: c:\temp\cov-analysis\config/template-apt-config-0/coverity_config.xml
2014-04-24T13:08:08.015954Z|cov-build|4432|info|>     Node: include Value: c:\temp\cov-analysis\config/template-msvc-config-0/coverity_config.xml
2014-04-24T13:08:08.015954Z|cov-build|4432|info|>     Node: include Value: c:\temp\cov-analysis\config/template-msvc_devenv-config-0/coverity_config.xml
2014-04-24T13:08:08.015954Z|cov-build|4432|info|>     Node: include Value: c:\temp\cov-analysis\config/template-msvc_msbuild-config-0/coverity_config.xml
2014-04-24T13:08:08.015954Z|cov-build|4432|info|>     Node: include Value: c:\temp\cov-analysis\config/template-csc-config-0/coverity_config.xml
2014-04-24T13:08:08.015954Z|cov-build|4432|info|>     Node: include Value: c:\temp\cov-analysis\config/template-gcc-config-2/coverity_config.xml
2014-04-24T13:08:08.015954Z|cov-build|4432|info|>     Node: include Value: c:\temp\cov-analysis\config/template-g++-config-0/coverity_config.xml
2014-04-24T13:08:08.015954Z|cov-build|4432|info|> 
2014-04-24T13:08:08.015954Z|cov-build|4432|info|> Configuration read from: c:\temp\cov-analysis\config\template-gcc-config-0\coverity_config.xml
2014-04-24T13:08:08.015954Z|cov-build|4432|info|> Node: coverity
2014-04-24T13:08:08.015954Z|cov-build|4432|info|>   Node: config
2014-04-24T13:08:08.016953Z|cov-build|4432|info|>     Node: build
2014-04-24T13:08:08.016953Z|cov-build|4432|info|>       Node: compiler
2014-04-24T13:08:08.016953Z|cov-build|4432|info|>         Node: template_compiler Value: true
2014-04-24T13:08:08.016953Z|cov-build|4432|info|>         Node: comp_name Value: gcc
2014-04-24T13:08:08.016953Z|cov-build|4432|info|>         Node: comp_translator Value: gcc
2014-04-24T13:08:08.016953Z|cov-build|4432|info|>       Node: options
2014-04-24T13:08:08.016953Z|cov-build|4432|info|>         Node: id Value: gcc-gcc-.*
2014-04-24T13:08:08.016953Z|cov-build|4432|info|>         Node: opt_preinclude_file Value: c:\temp\cov-analysis\config\template-gcc-config-0/../user_nodefs.h
2014-04-24T13:08:08.016953Z|cov-build|4432|info|>         Node: begin_command_line_config
2014-04-24T13:08:08.016953Z|cov-build|4432|info|>       Node: options
2014-04-24T13:08:08.016953Z|cov-build|4432|info|>         Node: id Value: g++-gcc-.*
2014-04-24T13:08:08.016953Z|cov-build|4432|info|>         Node: opt_preinclude_file Value: c:\temp\cov-analysis\config\template-gcc-config-0/../user_nodefs.h
2014-04-24T13:08:08.016953Z|cov-build|4432|info|>         Node: begin_command_line_config
2014-04-24T13:08:08.016953Z|cov-build|4432|info|>   Node: md5 Value: 1aaf5f2838ef32fff53a6252d23c27f3
2014-04-24T13:08:08.017977Z|cov-build|4432|info|> 
2014-04-24T13:08:08.017977Z|cov-build|4432|info|> Configuration read from: c:\temp\cov-analysis\config\template-gcc-config-1\coverity_config.xml
2014-04-24T13:08:08.017977Z|cov-build|4432|info|> Node: coverity
2014-04-24T13:08:08.017977Z|cov-build|4432|info|>   Node: config
2014-04-24T13:08:08.017977Z|cov-build|4432|info|>     Node: build
2014-04-24T13:08:08.017977Z|cov-build|4432|info|>       Node: compiler
2014-04-24T13:08:08.018955Z|cov-build|4432|info|>         Node: template_compiler Value: true
2014-04-24T13:08:08.018955Z|cov-build|4432|info|>         Node: comp_name Value: g++
2014-04-24T13:08:08.018955Z|cov-build|4432|info|>         Node: comp_translator Value: gcc
2014-04-24T13:08:08.018955Z|cov-build|4432|info|>       Node: options
2014-04-24T13:08:08.018955Z|cov-build|4432|info|>         Node: id Value: gcc-g++-.*
2014-04-24T13:08:08.019978Z|cov-build|4432|info|>         Node: opt_preinclude_file Value: c:\temp\cov-analysis\config\template-gcc-config-1/../user_nodefs.h
2014-04-24T13:08:08.019978Z|cov-build|4432|info|>         Node: begin_command_line_config
2014-04-24T13:08:08.019978Z|cov-build|4432|info|>       Node: options
2014-04-24T13:08:08.019978Z|cov-build|4432|info|>         Node: id Value: g++-g++-.*
2014-04-24T13:08:08.019978Z|cov-build|4432|info|>         Node: opt_preinclude_file Value: c:\temp\cov-analysis\config\template-gcc-config-1/../user_nodefs.h
2014-04-24T13:08:08.019978Z|cov-build|4432|info|>         Node: begin_command_line_config
2014-04-24T13:08:08.019978Z|cov-build|4432|info|>   Node: md5 Value: 586217b6ed824522d76d15bcc75c24f7
2014-04-24T13:08:08.020961Z|cov-build|4432|info|> 
2014-04-24T13:08:08.020961Z|cov-build|4432|info|> Configuration read from: c:\temp\cov-analysis\config\template-javac-config-0\coverity_config.xml
2014-04-24T13:08:08.020961Z|cov-build|4432|info|> Node: coverity
2014-04-24T13:08:08.020961Z|cov-build|4432|info|>   Node: config
2014-04-24T13:08:08.020961Z|cov-build|4432|info|>     Node: build
2014-04-24T13:08:08.020961Z|cov-build|4432|info|>       Node: compiler
2014-04-24T13:08:08.020961Z|cov-build|4432|info|>         Node: template_compiler Value: true
2014-04-24T13:08:08.020961Z|cov-build|4432|info|>         Node: comp_name Value: javac
2014-04-24T13:08:08.020961Z|cov-build|4432|info|>         Node: comp_translator Value: javac
2014-04-24T13:08:08.020961Z|cov-build|4432|info|>       Node: options
2014-04-24T13:08:08.020961Z|cov-build|4432|info|>         Node: id Value: javac-javac-.*
2014-04-24T13:08:08.021958Z|cov-build|4432|info|>         Node: opt_preinclude_file Value: c:\temp\cov-analysis\config\template-javac-config-0/../user_nodefs.h
2014-04-24T13:08:08.021958Z|cov-build|4432|info|>         Node: begin_command_line_config
2014-04-24T13:08:08.021958Z|cov-build|4432|info|>   Node: md5 Value: 0863602516cc09da4f9b4cb203a082a1
2014-04-24T13:08:08.021958Z|cov-build|4432|info|> 
2014-04-24T13:08:08.021958Z|cov-build|4432|info|> Configuration read from: c:\temp\cov-analysis\config\template-java-config-0\coverity_config.xml
2014-04-24T13:08:08.022967Z|cov-build|4432|info|> Node: coverity
2014-04-24T13:08:08.022967Z|cov-build|4432|info|>   Node: config
2014-04-24T13:08:08.022967Z|cov-build|4432|info|>     Node: build
2014-04-24T13:08:08.022967Z|cov-build|4432|info|>       Node: compiler
2014-04-24T13:08:08.022967Z|cov-build|4432|info|>         Node: template_compiler Value: true
2014-04-24T13:08:08.022967Z|cov-build|4432|info|>         Node: comp_name Value: java
2014-04-24T13:08:08.023957Z|cov-build|4432|info|>         Node: comp_translator Value: java
2014-04-24T13:08:08.023957Z|cov-build|4432|info|>       Node: options
2014-04-24T13:08:08.023957Z|cov-build|4432|info|>         Node: id Value: java-java-.*
2014-04-24T13:08:08.023957Z|cov-build|4432|info|>         Node: opt_preinclude_file Value: c:\temp\cov-analysis\config\template-java-config-0/../user_nodefs.h
2014-04-24T13:08:08.023957Z|cov-build|4432|info|>         Node: begin_command_line_config
2014-04-24T13:08:08.023957Z|cov-build|4432|info|>   Node: md5 Value: be98bfe5b9bf36e6c9d7ea1c3b5c9d07
2014-04-24T13:08:08.023957Z|cov-build|4432|info|> 
2014-04-24T13:08:08.023957Z|cov-build|4432|info|> Configuration read from: c:\temp\cov-analysis\config\template-apt-config-0\coverity_config.xml
2014-04-24T13:08:08.024958Z|cov-build|4432|info|> Node: coverity
2014-04-24T13:08:08.024958Z|cov-build|4432|info|>   Node: config
2014-04-24T13:08:08.024958Z|cov-build|4432|info|>     Node: build
2014-04-24T13:08:08.024958Z|cov-build|4432|info|>       Node: compiler
2014-04-24T13:08:08.024958Z|cov-build|4432|info|>         Node: template_compiler Value: true
2014-04-24T13:08:08.025968Z|cov-build|4432|info|>         Node: comp_name Value: apt
2014-04-24T13:08:08.025968Z|cov-build|4432|info|>         Node: comp_translator Value: apt
2014-04-24T13:08:08.025968Z|cov-build|4432|info|>       Node: options
2014-04-24T13:08:08.025968Z|cov-build|4432|info|>         Node: id Value: apt-apt-.*
2014-04-24T13:08:08.025968Z|cov-build|4432|info|>         Node: opt_preinclude_file Value: c:\temp\cov-analysis\config\template-apt-config-0/../user_nodefs.h
2014-04-24T13:08:08.026958Z|cov-build|4432|info|>         Node: begin_command_line_config
2014-04-24T13:08:08.026958Z|cov-build|4432|info|>   Node: md5 Value: 4fa15ca7273bef77ad7ff38cdf500811
2014-04-24T13:08:08.026958Z|cov-build|4432|info|> 
2014-04-24T13:08:08.026958Z|cov-build|4432|info|> Configuration read from: c:\temp\cov-analysis\config\template-msvc-config-0\coverity_config.xml
2014-04-24T13:08:08.026958Z|cov-build|4432|info|> Node: coverity
2014-04-24T13:08:08.026958Z|cov-build|4432|info|>   Node: config
2014-04-24T13:08:08.026958Z|cov-build|4432|info|>     Node: build
2014-04-24T13:08:08.027957Z|cov-build|4432|info|>       Node: compiler
2014-04-24T13:08:08.027957Z|cov-build|4432|info|>         Node: template_compiler Value: true
2014-04-24T13:08:08.027957Z|cov-build|4432|info|>         Node: comp_name Value: cl
2014-04-24T13:08:08.027957Z|cov-build|4432|info|>         Node: comp_translator Value: msvc
2014-04-24T13:08:08.027957Z|cov-build|4432|info|>         Node: version Value: 1600
2014-04-24T13:08:08.027957Z|cov-build|4432|info|>       Node: options
2014-04-24T13:08:08.027957Z|cov-build|4432|info|>         Node: id Value: msvc-cl-.*
2014-04-24T13:08:08.028959Z|cov-build|4432|info|>         Node: opt_preinclude_file Value: c:\temp\cov-analysis\config\template-msvc-config-0/../user_nodefs.h
2014-04-24T13:08:08.028959Z|cov-build|4432|info|>         Node: begin_command_line_config
2014-04-24T13:08:08.028959Z|cov-build|4432|info|>       Node: options
2014-04-24T13:08:08.028959Z|cov-build|4432|info|>         Node: id Value: msvc_cxx-cl-.*
2014-04-24T13:08:08.029959Z|cov-build|4432|info|>         Node: opt_preinclude_file Value: c:\temp\cov-analysis\config\template-msvc-config-0/../user_nodefs.h
2014-04-24T13:08:08.029959Z|cov-build|4432|info|>         Node: begin_command_line_config
2014-04-24T13:08:08.029959Z|cov-build|4432|info|>   Node: md5 Value: ca4385355c46bd40ee4834c58ae6148d
2014-04-24T13:08:08.029959Z|cov-build|4432|info|> 
2014-04-24T13:08:08.029959Z|cov-build|4432|info|> Configuration read from: c:\temp\cov-analysis\config\template-msvc_devenv-config-0\coverity_config.xml
2014-04-24T13:08:08.029959Z|cov-build|4432|info|> Node: coverity
2014-04-24T13:08:08.029959Z|cov-build|4432|info|>   Node: config
2014-04-24T13:08:08.030960Z|cov-build|4432|info|>     Node: build
2014-04-24T13:08:08.030960Z|cov-build|4432|info|>       Node: compiler
2014-04-24T13:08:08.030960Z|cov-build|4432|info|>         Node: template_compiler Value: true
2014-04-24T13:08:08.030960Z|cov-build|4432|info|>         Node: comp_name Value: devenv
2014-04-24T13:08:08.030960Z|cov-build|4432|info|>         Node: comp_translator Value: msvc_devenv
2014-04-24T13:08:08.031962Z|cov-build|4432|info|>       Node: options
2014-04-24T13:08:08.031962Z|cov-build|4432|info|>         Node: id Value: msvc_devenv-devenv-.*
2014-04-24T13:08:08.031962Z|cov-build|4432|info|>         Node: opt_preinclude_file Value: c:\temp\cov-analysis\config\template-msvc_devenv-config-0/../user_nodefs.h
2014-04-24T13:08:08.031962Z|cov-build|4432|info|>         Node: begin_command_line_config
2014-04-24T13:08:08.031962Z|cov-build|4432|info|>   Node: md5 Value: 7630207bb674c330b87149e2562a9124
2014-04-24T13:08:08.031962Z|cov-build|4432|info|> 
2014-04-24T13:08:08.032961Z|cov-build|4432|info|> Configuration read from: c:\temp\cov-analysis\config\template-msvc_msbuild-config-0\coverity_config.xml
2014-04-24T13:08:08.032961Z|cov-build|4432|info|> Node: coverity
2014-04-24T13:08:08.032961Z|cov-build|4432|info|>   Node: config
2014-04-24T13:08:08.032961Z|cov-build|4432|info|>     Node: build
2014-04-24T13:08:08.032961Z|cov-build|4432|info|>       Node: compiler
2014-04-24T13:08:08.032961Z|cov-build|4432|info|>         Node: template_compiler Value: true
2014-04-24T13:08:08.033962Z|cov-build|4432|info|>         Node: comp_name Value: msbuild
2014-04-24T13:08:08.033962Z|cov-build|4432|info|>         Node: comp_translator Value: msvc_msbuild
2014-04-24T13:08:08.033962Z|cov-build|4432|info|>       Node: options
2014-04-24T13:08:08.033962Z|cov-build|4432|info|>         Node: id Value: msvc_msbuild-msbuild-.*
2014-04-24T13:08:08.033962Z|cov-build|4432|info|>         Node: opt_preinclude_file Value: c:\temp\cov-analysis\config\template-msvc_msbuild-config-0/../user_nodefs.h
2014-04-24T13:08:08.033962Z|cov-build|4432|info|>         Node: begin_command_line_config
2014-04-24T13:08:08.034963Z|cov-build|4432|info|>   Node: md5 Value: ad98de37398120932b8b1b9eabc18539
2014-04-24T13:08:08.034963Z|cov-build|4432|info|> 
2014-04-24T13:08:08.034963Z|cov-build|4432|info|> Configuration read from: c:\temp\cov-analysis\config\template-csc-config-0\coverity_config.xml
2014-04-24T13:08:08.034963Z|cov-build|4432|info|> Node: coverity
2014-04-24T13:08:08.034963Z|cov-build|4432|info|>   Node: config
2014-04-24T13:08:08.034963Z|cov-build|4432|info|>     Node: build
2014-04-24T13:08:08.034963Z|cov-build|4432|info|>       Node: compiler
2014-04-24T13:08:08.035963Z|cov-build|4432|info|>         Node: template_compiler Value: true
2014-04-24T13:08:08.035963Z|cov-build|4432|info|>         Node: comp_name Value: csc
2014-04-24T13:08:08.035963Z|cov-build|4432|info|>         Node: comp_translator Value: csc
2014-04-24T13:08:08.035963Z|cov-build|4432|info|>         Node: comp_generic Value: csc
2014-04-24T13:08:08.035963Z|cov-build|4432|info|>       Node: options
2014-04-24T13:08:08.035963Z|cov-build|4432|info|>         Node: id Value: csc-csc-.*
2014-04-24T13:08:08.035963Z|cov-build|4432|info|>         Node: opt_preinclude_file Value: c:\temp\cov-analysis\config\template-csc-config-0/../user_nodefs.h
2014-04-24T13:08:08.036964Z|cov-build|4432|info|>         Node: begin_command_line_config
2014-04-24T13:08:08.036964Z|cov-build|4432|info|>       Node: options
2014-04-24T13:08:08.036964Z|cov-build|4432|info|>         Node: id Value: -csc-.*
2014-04-24T13:08:08.036964Z|cov-build|4432|info|>         Node: opt_preinclude_file Value: c:\temp\cov-analysis\config\template-csc-config-0/../user_nodefs.h
2014-04-24T13:08:08.036964Z|cov-build|4432|info|>         Node: begin_command_line_config
2014-04-24T13:08:08.036964Z|cov-build|4432|info|>   Node: md5 Value: 5e575baf9fb708e7a7f8e66d1a006a5b
2014-04-24T13:08:08.036964Z|cov-build|4432|info|> 
2014-04-24T13:08:08.037965Z|cov-build|4432|info|> Configuration read from: c:\temp\cov-analysis\config\template-gcc-config-2\coverity_config.xml
2014-04-24T13:08:08.037965Z|cov-build|4432|info|> Node: coverity
2014-04-24T13:08:08.037965Z|cov-build|4432|info|>   Node: config
2014-04-24T13:08:08.037965Z|cov-build|4432|info|>     Node: build
2014-04-24T13:08:08.037965Z|cov-build|4432|info|>       Node: compiler
2014-04-24T13:08:08.037965Z|cov-build|4432|info|>         Node: template_compiler Value: true
2014-04-24T13:08:08.037965Z|cov-build|4432|info|>         Node: comp_name Value: cc
2014-04-24T13:08:08.038965Z|cov-build|4432|info|>         Node: comp_translator Value: gcc
2014-04-24T13:08:08.038965Z|cov-build|4432|info|>       Node: options
2014-04-24T13:08:08.038965Z|cov-build|4432|info|>         Node: id Value: gcc-cc-.*
2014-04-24T13:08:08.038965Z|cov-build|4432|info|>         Node: opt_preinclude_file Value: c:\temp\cov-analysis\config\template-gcc-config-2/../user_nodefs.h
2014-04-24T13:08:08.038965Z|cov-build|4432|info|>         Node: begin_command_line_config
2014-04-24T13:08:08.038965Z|cov-build|4432|info|>       Node: options
2014-04-24T13:08:08.038965Z|cov-build|4432|info|>         Node: id Value: g++-cc-.*
2014-04-24T13:08:08.039966Z|cov-build|4432|info|>         Node: opt_preinclude_file Value: c:\temp\cov-analysis\config\template-gcc-config-2/../user_nodefs.h
2014-04-24T13:08:08.039966Z|cov-build|4432|info|>         Node: begin_command_line_config
2014-04-24T13:08:08.039966Z|cov-build|4432|info|>   Node: md5 Value: 7ebe33a7c03470e9dc790b125267701b
2014-04-24T13:08:08.039966Z|cov-build|4432|info|> 
2014-04-24T13:08:08.040968Z|cov-build|4432|info|> Configuration read from: c:\temp\cov-analysis\config\template-g++-config-0\coverity_config.xml
2014-04-24T13:08:08.040968Z|cov-build|4432|info|> Node: coverity
2014-04-24T13:08:08.040968Z|cov-build|4432|info|>   Node: config
2014-04-24T13:08:08.040968Z|cov-build|4432|info|>     Node: build
2014-04-24T13:08:08.040968Z|cov-build|4432|info|>       Node: compiler
2014-04-24T13:08:08.040968Z|cov-build|4432|info|>         Node: template_compiler Value: true
2014-04-24T13:08:08.040968Z|cov-build|4432|info|>         Node: comp_name Value: c++
2014-04-24T13:08:08.040968Z|cov-build|4432|info|>         Node: comp_translator Value: g++
2014-04-24T13:08:08.041969Z|cov-build|4432|info|>       Node: options
2014-04-24T13:08:08.041969Z|cov-build|4432|info|>         Node: id Value: g++-c++-.*
2014-04-24T13:08:08.041969Z|cov-build|4432|info|>         Node: opt_preinclude_file Value: c:\temp\cov-analysis\config\template-g++-config-0/../user_nodefs.h
2014-04-24T13:08:08.041969Z|cov-build|4432|info|>         Node: begin_command_line_config
2014-04-24T13:08:08.041969Z|cov-build|4432|info|>   Node: md5 Value: 2e3892d81b9a86c05e3a5a35cd3d00d6
2014-04-24T13:08:08.041969Z|cov-build|4432|info|> 
2014-04-24T13:08:08.092581Z|cov-internal-capture|5000|info|> Running build command: "C:\Program Files (x86)\MSBuild\12.0\bin\amd64\msbuild.exe"  /t:Rebuild
2014-04-24T13:08:08.092581Z|cov-internal-capture|5000|info|> Launching in directory c:\Projekte\WDSFJudging\Judging Server
2014-04-24T13:08:08.104766Z|cov-internal-capture|5000|info|> EXECUTING: "C:\Program Files (x86)\MSBuild\12.0\bin\amd64\msbuild.exe"  /t:Rebuild
2014-04-24T13:08:09.171251Z|cov-build|4432|info|> 
2014-04-24T13:08:09.171251Z|cov-build|4432|info|> Build time (cov-build overall): 00:00:01.753021
2014-04-24T13:08:09.171251Z|cov-build|4432|info|> 
2014-04-24T13:08:09.174557Z|cov-build|4432|info|> [WARNING] Build command msbuild.exe /t:Rebuild exited with code 1. Please verify that the build completed successfully.
2014-04-24T13:08:09.175534Z|cov-build|4432|info|> [WARNING] No files were emitted. This may be due to a problem with your configuration
2014-04-24T13:08:09.176161Z|cov-build|4432|info|> or because no files were actually compiled by your build command.
2014-04-24T13:08:09.176161Z|cov-build|4432|info|> Please make sure you have configured the compilers actually used in the compilation.
2014-04-24T13:08:09.177164Z|cov-build|4432|info|>  For more details, please look at: 
2014-04-24T13:08:09.178166Z|cov-build|4432|info|>     c:\Projekte\WDSFJudging\Judging Server\cov-int\build-log.txt
2014-04-24T13:08:09.182166Z|cov-build|4432|info|> 
