﻿<!DOCTYPE HTML PUBLIC "-//W3C//DTD HTML 4.0 Transitional//EN">
<html>

	<head>
		<title></title>

        <style type="text/css">
            
             @@@CSS@@@
            

        </style>
	</head>
	<body scroll="no">

		<div style="Margin-Left: 10px">
		
        <h1>@@@Number@@@ - @@@Couple@@@ (@@@Country@@@)</h1>
		<br/>
	    
		</div>
        
		<div style="Margin-Left: 100px;Margin-Top:80px;">
			<table style="font-size: 60px">
				<tr>
					<td width="320px">Points: </td>
					<td>@@@Average@@@</td>
				</tr>
				<tr>
					<td><br/>Place: </td>
					<td style="text-align: right;"><br/>@@@Place@@@.</td>
				</tr>
			</table>
			
		</div>
        <div style="margin-top: 80px;">
            <table class="JudgeTable">
            <tr>
                <td>Technical Quality</td>
                <td>Movement to Music</td>
                <td>Partnerin Skill</td>
                <td>Choreography and Presentation</td>
            </tr>
            <tr>
                <td>@@@A@@@</td>
                <td>@@@B@@@</td>
                <td>@@@C@@@</td>
                <td>@@@D@@@</td>
            </tr>
        </table>
        </div>
        <div style="margin-left:700px;margin-top:30px;">
            <img src="Tianjin_logo.jpg" height="200px" />
        </div>
	</body>
</html>